FIFO_/dump.vcd
$date
	Sun Jul 12 14:56:40 2026
$end
$version
	Icarus Verilog
$end
$timescale
	1ps
$end
$scope module tb_fifo $end
$var wire 1 ! full $end
$var wire 1 " empty $end
$var wire 8 # data_out [7:0] $end
$var reg 1 $ clk $end
$var reg 8 % data_in [7:0] $end
$var reg 8 & expected [7:0] $end
$var reg 1 ' r_en $end
$var reg 1 ( rst_n $end
$var reg 1 ) w_en $end
$var integer 32 * i [31:0] $end
$scope module dut $end
$var wire 1 $ clk $end
$var wire 4 + count [3:0] $end
$var wire 8 , data_in [7:0] $end
$var wire 1 - do_read $end
$var wire 1 . do_write $end
$var wire 1 ' r_en $end
$var wire 1 ( rst_n $end
$var wire 1 ) w_en $end
$var wire 1 ! full $end
$var wire 1 " empty $end
$var wire 1 / almost_full $end
$var wire 1 0 almost_empty $end
$var reg 8 1 data_out [7:0] $end
$var reg 4 2 fifo_count [3:0] $end
$var reg 3 3 rd_ptr [2:0] $end
$var reg 3 4 wr_ptr [2:0] $end
$upscope $end
$upscope $end
$enddefinitions $end
#0
$dumpvars
b0 4
b0 3
b0 2
b0 1
10
0/
0.
0-
b0 ,
b0 +
bx *
0)
0(
0'
bx &
b0 %
0$
b0 #
1"
0!
$end
#5000
1$
#10000
0$
#15000
1$
#20000
0$
#25000
1$
#30000
0$
#35000
1$
#40000
0$
#45000
b0 *
1(
1$
#50000
1.
b100100 %
b100100 ,
1)
0$
#55000
b1 4
0"
b1 +
b1 2
b1 *
1$
#60000
b10000001 %
b10000001 ,
0$
#65000
00
b10 +
b10 2
b10 4
b10 *
1$
#70000
b1001 %
b1001 ,
0$
#75000
b11 4
b11 +
b11 2
b11 *
1$
#80000
b1100011 %
b1100011 ,
0$
#85000
b100 +
b100 2
b100 4
b100 *
1$
#90000
b1101 %
b1101 ,
0$
#95000
b101 4
b101 +
b101 2
b101 *
1$
#100000
b10001101 %
b10001101 ,
0$
#105000
b110 +
b110 2
b110 4
b110 *
1$
#110000
b1100101 %
b1100101 ,
0$
#115000
b111 4
1/
b111 +
b111 2
b111 *
1$
#120000
b10010 %
b10010 ,
0$
#125000
0.
1!
b1000 +
b1000 2
b0 4
b1000 *
1$
#130000
0)
0$
#135000
1$
#140000
0$
#145000
b100100 &
b0 *
1$
#150000
1-
1'
0$
#155000
b1 3
b100100 #
b100100 1
0!
b111 +
b111 2
1$
#156000
b10000001 &
b1 *
#160000
0$
#165000
0/
b110 +
b110 2
b10 3
b10000001 #
b10000001 1
1$
#166000
b1001 &
b10 *
#170000
0$
#175000
b11 3
b1001 #
b1001 1
b101 +
b101 2
1$
#176000
b1100011 &
b11 *
#180000
0$
#185000
b100 +
b100 2
b100 3
b1100011 #
b1100011 1
1$
#186000
b1101 &
b100 *
#190000
0$
#195000
b101 3
b1101 #
b1101 1
b11 +
b11 2
1$
#196000
b10001101 &
b101 *
#200000
0$
#205000
b10 +
b10 2
b110 3
b10001101 #
b10001101 1
1$
#206000
b1100101 &
b110 *
#210000
0$
#215000
b111 3
b1100101 #
b1100101 1
10
b1 +
b1 2
1$
#216000
b10010 &
b111 *
#220000
0$
#225000
0-
1"
b0 +
b0 2
b0 3
b10010 #
b10010 1
1$
#226000
b1000 *
#230000
0'
0$
